CMD_Detector.vcd
$date
	Tue Aug 27 10:50:46 2024
$end
$version
	Icarus Verilog
$end
$timescale
	1s
$end
$scope module CMD_Detector_tb $end
$var wire 8 ! cmd_waddr [7:0] $end
$var wire 16 " cmd_params [15:0] $end
$var wire 8 # PARAM_Byte [7:0] $end
$var wire 1 $ CMD_WCLK $end
$var wire 1 % CMD_Detected $end
$var reg 8 & Cmd_id [7:0] $end
$var reg 1 ' Rx $end
$var reg 1 ( clk $end
$var reg 1 ) reset $end
$scope begin genblk1[1] $end
$var parameter 2 * i $end
$upscope $end
$scope begin genblk1[2] $end
$var parameter 3 + i $end
$upscope $end
$scope begin genblk1[3] $end
$var parameter 3 , i $end
$upscope $end
$scope begin genblk1[4] $end
$var parameter 4 - i $end
$upscope $end
$scope begin genblk1[5] $end
$var parameter 4 . i $end
$upscope $end
$scope begin genblk1[6] $end
$var parameter 4 / i $end
$upscope $end
$scope begin genblk1[7] $end
$var parameter 4 0 i $end
$upscope $end
$scope begin genblk1[8] $end
$var parameter 5 1 i $end
$upscope $end
$scope begin genblk1[9] $end
$var parameter 5 2 i $end
$upscope $end
$scope begin genblk1[10] $end
$var parameter 5 3 i $end
$upscope $end
$scope begin genblk1[11] $end
$var parameter 5 4 i $end
$upscope $end
$scope begin genblk1[12] $end
$var parameter 5 5 i $end
$upscope $end
$scope begin genblk1[13] $end
$var parameter 5 6 i $end
$upscope $end
$scope begin genblk1[14] $end
$var parameter 5 7 i $end
$upscope $end
$scope begin genblk1[15] $end
$var parameter 5 8 i $end
$upscope $end
$scope begin genblk1[16] $end
$var parameter 6 9 i $end
$upscope $end
$scope begin genblk1[17] $end
$var parameter 6 : i $end
$upscope $end
$scope begin genblk1[18] $end
$var parameter 6 ; i $end
$upscope $end
$scope begin genblk1[19] $end
$var parameter 6 < i $end
$upscope $end
$scope begin genblk1[20] $end
$var parameter 6 = i $end
$upscope $end
$scope begin genblk1[21] $end
$var parameter 6 > i $end
$upscope $end
$scope begin genblk1[22] $end
$var parameter 6 ? i $end
$upscope $end
$scope begin genblk1[23] $end
$var parameter 6 @ i $end
$upscope $end
$scope begin genblk1[24] $end
$var parameter 6 A i $end
$upscope $end
$scope begin genblk1[25] $end
$var parameter 6 B i $end
$upscope $end
$scope begin genblk1[26] $end
$var parameter 6 C i $end
$upscope $end
$scope begin genblk1[27] $end
$var parameter 6 D i $end
$upscope $end
$scope begin genblk1[28] $end
$var parameter 6 E i $end
$upscope $end
$scope begin genblk1[29] $end
$var parameter 6 F i $end
$upscope $end
$scope module cd1 $end
$var wire 1 % CMD_Detected $end
$var wire 8 G CMD_WADDR [7:0] $end
$var wire 1 $ CMD_WCLK $end
$var wire 8 H Cmd_id [7:0] $end
$var wire 1 ' Rx $end
$var wire 1 ( clk $end
$var wire 1 ) reset $end
$var wire 8 I PARAM_Byte [7:0] $end
$var parameter 3 J CHK_PAY_ID $end
$var parameter 3 K CHK_TC_CNTR $end
$var parameter 3 L CHK_TC_LEN $end
$var parameter 3 M CMD_DETECTED_BIT $end
$var parameter 3 N CMD_IDLE $end
$var parameter 3 O CMD_PARAM_RX $end
$var parameter 3 P CMD_START_BIT $end
$var parameter 8 Q Minor_ID $end
$var parameter 8 R PAYLOAD_ID $end
$var parameter 8 S clk_per_bit $end
$var parameter 8 T cmd_id $end
$var reg 8 U CMD_BYTE [7:0] $end
$var reg 8 V NUM_PARAM_TO_RX [7:0] $end
$var reg 1 W chk_pay_id_flg $end
$var reg 1 X chk_tc_cntr_flg $end
$var reg 1 Y chk_tc_len_flg $end
$var reg 8 Z cmd_bits_rx [7:0] $end
$var reg 8 [ cmd_byte [7:0] $end
$var reg 6 \ cmd_clk_counts [5:0] $end
$var reg 1 ] cmd_detect_flg $end
$var reg 16 ^ cmd_params [15:0] $end
$var reg 12 _ cmd_seq [11:0] $end
$var reg 11 ` cmd_state [10:0] $end
$var reg 1 a cmd_sync_flag $end
$var reg 3 b cmd_uart_state [2:0] $end
$var reg 8 c cmd_waddr [7:0] $end
$var reg 1 d cmd_wclk $end
$var reg 8 e first_cmd [7:0] $end
$var reg 8 f num_params [7:0] $end
$var reg 8 g param_reg [7:0] $end
$var reg 8 h pay_id [7:0] $end
$var reg 8 i pay_id_seq [7:0] $end
$var reg 8 j tc_cntr_curr [7:0] $end
$var reg 8 k tc_cntr_prev [7:0] $end
$var reg 8 l xor_op [7:0] $end
$scope function shifter $end
$var reg 8 m CMD_BYTE [7:0] $end
$var integer 32 n i [31:0] $end
$upscope $end
$upscope $end
$upscope $end
$enddefinitions $end
$comment Show the parameter values. $end
$dumpall
b11111100 T
b100 S
b111 R
b11111110 Q
b1 P
b110 O
b0 N
b10 M
b101 L
b11 K
b100 J
b11101 F
b11100 E
b11011 D
b11010 C
b11001 B
b11000 A
b10111 @
b10110 ?
b10101 >
b10100 =
b10011 <
b10010 ;
b10001 :
b10000 9
b1111 8
b1110 7
b1101 6
b1100 5
b1011 4
b1010 3
b1001 2
b1000 1
b111 0
b110 /
b101 .
b100 -
b11 ,
b10 +
b1 *
$end
#0
$dumpvars
b1000 n
bx m
bx l
bx k
bx j
bx i
bx h
bx g
bx f
bx e
xd
bx c
bx b
0a
b0 `
bx _
bx ^
x]
bx \
bx [
bx Z
xY
xX
xW
bx V
bx U
bx I
b11111100 H
bx G
0)
0(
1'
b11111100 &
x%
x$
bx #
bx "
bx !
$end
#5
b0 #
b0 I
b1000 n
b0 m
b11111100 e
b0 l
b0 "
b0 ^
b0 h
b0 k
b0 j
0Y
0W
0X
0$
0d
b0 g
b0 V
b0 f
b0 !
b0 G
b0 c
b0 \
b0 Z
0%
0]
b0 b
1(
#10
0(
#15
1(
#20
0(
#25
1(
#30
0(
1)
#35
b11101 i
b0xxxxxxxx11 _
b11111100 U
b1000 n
bx m
1(
#37
0'
#40
0(
#45
b1 \
b111111 [
b1000 n
b11111100 m
1(
#50
0(
#55
b1 b
b0 \
1a
b11111111 _
b1000 n
1(
#60
0(
#65
b1 \
1(
#70
0(
#75
b10 \
1(
#80
0(
#85
b11 \
1(
#90
0(
#95
b1 Z
b0 \
1(
#100
0(
#105
b1 \
1(
#110
0(
#115
b10 \
1(
#120
0(
#125
b11 \
1(
#130
0(
#135
b10 Z
b0 \
1(
#140
0(
#145
b1 \
1(
#150
0(
#155
b10 \
1(
#157
1'
#160
0(
#165
b11 \
1(
#170
0(
#175
b11 Z
b0 \
b1 `
1(
#180
0(
#185
b1 \
1(
#190
0(
#195
b10 \
1(
#200
0(
#205
b11 \
1(
#210
0(
#215
b100 Z
b0 \
b11 `
1(
#220
0(
#225
b1 \
1(
#230
0(
#235
b10 \
1(
#240
0(
#245
b11 \
1(
#250
0(
#255
b101 Z
b0 \
b111 `
1(
#260
0(
#265
b1 \
1(
#270
0(
#275
b10 \
1(
#280
0(
#285
b11 \
1(
#290
0(
#295
b110 Z
b0 \
b1111 `
1(
#300
0(
#305
b1 \
1(
#310
0(
#315
b10 \
1(
#320
0(
#325
b11 \
1(
#330
0(
#335
b111 Z
b0 \
b11111 `
1(
#340
0(
#345
b1 \
1(
#350
0(
#355
b10 \
1(
#360
0(
#365
b11 \
1(
#370
0(
#375
b1000 Z
b0 \
b111111 `
1(
#380
0(
#385
b1 \
1(
#390
0(
#395
b10 \
1(
#400
0(
#405
b11 \
1(
#410
0(
#415
b1001 Z
b0 \
b1111111 `
1(
#420
0(
#425
b1 \
1(
#430
0(
#435
b10 \
1(
#440
0(
#445
b11 \
1(
#450
0(
#455
b1010 Z
b0 \
b11111111 `
1(
#460
0(
#465
b1 \
1(
#470
0(
#475
b10 \
1(
#480
0(
#485
b11 \
1(
#490
0(
0'
#495
b0 b
1X
b1011 Z
b0 \
b111111110 `
1(
#500
0(
#505
b1 \
0a
b0 Z
b0 `
b1000 n
1(
#510
0(
#515
b1 b
b0 \
1a
b1000 n
1(
#520
0(
#525
b1 \
1(
#530
0(
1'
#535
b10 \
1(
#540
0(
#545
b11 \
1(
#550
0(
#555
b1 Z
b0 \
b1 `
1(
#560
0(
#565
b1 \
1(
#570
0(
0'
#575
b10 \
1(
#580
0(
#585
b11 \
1(
#590
0(
#595
b10 Z
b0 \
b10 `
1(
#600
0(
#605
b1 \
1(
#610
0(
#615
b10 \
1(
#620
0(
#625
b11 \
1(
#630
0(
#635
b11 Z
b0 \
b100 `
1(
#640
0(
#645
b1 \
1(
#650
0(
#655
b10 \
1(
#660
0(
#665
b11 \
1(
#670
0(
#675
b100 Z
b0 \
b1000 `
1(
#680
0(
#685
b1 \
1(
#690
0(
#695
b10 \
1(
#700
0(
#705
b11 \
1(
#710
0(
#715
b101 Z
b0 \
b10000 `
1(
#720
0(
#725
b1 \
1(
#730
0(
#735
b10 \
1(
#740
0(
#745
b11 \
1(
#750
0(
#755
b110 Z
b0 \
b100000 `
1(
#760
0(
#765
b1 \
1(
#770
0(
#775
b10 \
1(
#780
0(
#785
b11 \
1(
#790
0(
#795
b111 Z
b0 \
b1000000 `
1(
#800
0(
#805
b1 \
1(
#810
0(
#815
b10 \
1(
#820
0(
#825
b11 \
1(
#830
0(
#835
b1000 Z
b0 \
b10000000 `
1(
#840
0(
#845
b1 \
1(
#850
0(
#855
b10 \
1(
#860
0(
#865
b11 \
1(
#870
0(
#875
b1001 Z
b0 \
b100000000 `
1(
#880
0(
#885
b1 \
1(
#890
0(
1'
#895
b10 \
1(
#900
0(
#905
b11 \
1(
#910
0(
#915
b1010 Z
b0 \
b1000000001 `
1(
#920
0(
#925
b1 \
1(
#930
0(
#935
b10 \
1(
#940
0(
#945
b11 \
1(
#950
0(
#955
b1 #
b1 I
b1000 n
b10000000 m
b11 b
b1 !
b1 G
b1 c
1$
1d
b10000000 g
b10000000 j
b1011 Z
b0 \
b10000000011 `
1(
#960
0(
#965
b1 \
0X
b10000000 l
1(
#970
0(
0'
#975
b10 \
b10000000 k
1Y
1(
#980
0(
#985
b11 \
b0 l
1(
#990
0(
#995
b0 b
1(
#1000
0(
#1005
b1 b
b0 \
0$
0d
1a
b0 Z
b110 `
b1000 n
b11111100 m
1(
#1010
0(
#1015
b1 \
1(
#1020
0(
#1025
b10 \
1(
#1030
0(
#1035
b11 \
1(
#1040
0(
#1045
b1 Z
b0 \
b1100 `
1(
#1050
0(
1'
#1055
b1 \
1(
#1060
0(
#1065
b10 \
1(
#1070
0(
#1075
b11 \
1(
#1080
0(
#1085
b10 Z
b0 \
b11001 `
1(
#1090
0(
0'
#1095
b1 \
1(
#1100
0(
#1105
b10 \
1(
#1110
0(
#1115
b11 \
1(
#1120
0(
#1125
b11 Z
b0 \
b110010 `
1(
#1130
0(
#1135
b1 \
1(
#1140
0(
#1145
b10 \
1(
#1150
0(
#1155
b11 \
1(
#1160
0(
#1165
b100 Z
b0 \
b1100100 `
1(
#1170
0(
#1175
b1 \
1(
#1180
0(
#1185
b10 \
1(
#1190
0(
#1195
b11 \
1(
#1200
0(
#1205
b101 Z
b0 \
b11001000 `
1(
#1210
0(
#1215
b1 \
1(
#1220
0(
#1225
b10 \
1(
#1230
0(
#1235
b11 \
1(
#1240
0(
#1245
b110 Z
b0 \
b110010000 `
1(
#1250
0(
#1255
b1 \
1(
#1260
0(
#1265
b10 \
1(
#1270
0(
#1275
b11 \
1(
#1280
0(
#1285
b111 Z
b0 \
b1100100000 `
1(
#1290
0(
#1295
b1 \
1(
#1300
0(
#1305
b10 \
1(
#1310
0(
#1315
b11 \
1(
#1320
0(
#1325
b1000 Z
b0 \
b11001000000 `
1(
#1330
0(
#1335
b1 \
1(
#1340
0(
#1345
b10 \
1(
#1350
0(
#1355
b11 \
1(
#1360
0(
#1365
b1001 Z
b0 \
b10010000000 `
1(
#1370
0(
1'
#1375
b1 \
1(
#1380
0(
#1385
b10 \
1(
#1390
0(
#1395
b11 \
1(
#1400
0(
#1405
b1010 Z
b0 \
b100000001 `
1(
#1410
0(
#1415
b1 \
1(
#1420
0(
#1425
b10 \
1(
#1430
0(
#1435
b11 \
1(
#1440
0(
#1445
b10 #
b10 I
b101 b
b10 !
b10 G
b10 c
1$
1d
b1000000 g
b10 V
b1011 Z
b0 \
b1000000011 `
b1000 n
b1000000 m
1(
#1450
0(
0'
#1455
b1 \
0Y
1W
1(
#1460
0(
#1465
b0 b
1(
#1470
0(
#1475
b1 b
b0 \
0$
0d
1a
b0 Z
b10000000110 `
b1000 n
b11111100 m
1(
#1480
0(
#1485
b1 \
1(
#1490
0(
1'
#1495
b10 \
1(
#1500
0(
#1505
b11 \
1(
#1510
0(
#1515
b1 Z
b0 \
b1101 `
1(
#1520
0(
#1525
b1 \
1(
#1530
0(
#1535
b10 \
1(
#1540
0(
#1545
b11 \
1(
#1550
0(
#1555
b10 Z
b0 \
b11011 `
1(
#1560
0(
#1565
b1 \
1(
#1570
0(
#1575
b10 \
1(
#1580
0(
#1585
b11 \
1(
#1590
0(
#1595
b11 Z
b0 \
b110111 `
1(
#1600
0(
#1605
b1 \
1(
#1610
0(
0'
#1615
b10 \
1(
#1620
0(
#1625
b11 \
1(
#1630
0(
#1635
b100 Z
b0 \
b1101110 `
1(
#1640
0(
#1645
b1 \
1(
#1650
0(
#1655
b10 \
1(
#1660
0(
#1665
b11 \
1(
#1670
0(
#1675
b101 Z
b0 \
b11011100 `
1(
#1680
0(
#1685
b1 \
1(
#1690
0(
#1695
b10 \
1(
#1700
0(
#1705
b11 \
1(
#1710
0(
#1715
b110 Z
b0 \
b110111000 `
1(
#1720
0(
#1725
b1 \
1(
#1730
0(
#1735
b10 \
1(
#1740
0(
#1745
b11 \
1(
#1750
0(
#1755
b111 Z
b0 \
b1101110000 `
1(
#1760
0(
#1765
b1 \
1(
#1770
0(
#1775
b10 \
1(
#1780
0(
#1785
b11 \
1(
#1790
0(
#1795
b1000 Z
b0 \
b11011100000 `
1(
#1800
0(
#1805
b1 \
1(
#1810
0(
#1815
b10 \
1(
#1820
0(
#1825
b11 \
1(
#1830
0(
#1835
b1001 Z
b0 \
b10111000000 `
1(
#1840
0(
#1845
b1 \
1(
#1850
0(
1'
#1855
b10 \
1(
#1860
0(
#1865
b11 \
1(
#1870
0(
#1875
b1010 Z
b0 \
b1110000001 `
1(
#1880
0(
#1885
b1 \
1(
#1890
0(
#1895
b10 \
1(
#1900
0(
#1905
b11 \
1(
#1910
0(
#1915
b111 #
b111 I
b100 b
b11 !
b11 G
b11 c
1$
1d
b11100000 g
b111 h
b1011 Z
b0 \
b11100000011 `
b1000 n
b11100000 m
1(
#1920
0(
#1925
b1 \
0W
1%
1]
1(
#1930
0(
0'
#1935
b0 b
1(
#1940
0(
#1945
b1 b
b0 \
0$
0d
1a
b0 Z
b11000000110 `
b1000 n
b11111100 m
1(
#1950
0(
#1955
b1 \
1(
#1960
0(
#1965
b10 \
1(
#1970
0(
1'
#1975
b11 \
1(
#1980
0(
#1985
b1 Z
b0 \
b10000001101 `
1(
#1990
0(
#1995
b1 \
1(
#2000
0(
#2005
b10 \
1(
#2010
0(
0'
#2015
b11 \
1(
#2020
0(
#2025
b10 Z
b0 \
b11010 `
1(
#2030
0(
#2035
b1 \
1(
#2040
0(
#2045
b10 \
1(
#2050
0(
#2055
b11 \
1(
#2060
0(
#2065
b11 Z
b0 \
b110100 `
1(
#2070
0(
#2075
b1 \
1(
#2080
0(
#2085
b10 \
1(
#2090
0(
#2095
b11 \
1(
#2100
0(
#2105
b100 Z
b0 \
b1101000 `
1(
#2110
0(
#2115
b1 \
1(
#2120
0(
#2125
b10 \
1(
#2130
0(
#2135
b11 \
1(
#2140
0(
#2145
b101 Z
b0 \
b11010000 `
1(
#2150
0(
#2155
b1 \
1(
#2160
0(
#2165
b10 \
1(
#2170
0(
#2175
b11 \
1(
#2180
0(
#2185
b110 Z
b0 \
b110100000 `
1(
#2190
0(
#2195
b1 \
1(
#2200
0(
#2205
b10 \
1(
#2210
0(
#2215
b11 \
1(
#2220
0(
#2225
b111 Z
b0 \
b1101000000 `
1(
#2230
0(
#2235
b1 \
1(
#2240
0(
#2245
b10 \
1(
#2250
0(
#2255
b11 \
1(
#2260
0(
#2265
b1000 Z
b0 \
b11010000000 `
1(
#2270
0(
#2275
b1 \
1(
#2280
0(
#2285
b10 \
1(
#2290
0(
#2295
b11 \
1(
#2300
0(
#2305
b1001 Z
b0 \
b10100000000 `
1(
#2310
0(
#2315
b1 \
1(
#2320
0(
#2325
b10 \
1(
#2330
0(
1'
#2335
b11 \
1(
#2340
0(
#2345
b1010 Z
b0 \
b1000000001 `
1(
#2350
0(
#2355
b1 \
1(
#2360
0(
#2365
b10 \
1(
#2370
0(
#2375
b11 \
1(
#2380
0(
#2385
b1 #
b1 I
b0 b
b1 f
b100 !
b100 G
b100 c
1$
1d
b1 "
b1 ^
b10000000 g
b1011 Z
b0 \
b0 `
b1000 n
b10000000 m
1(
#2390
0(
#2395
0$
0d
0a
b0 Z
b1000 n
b11111100 m
1(
#2400
0(
#2405
b1000 n
1(
#2410
0(
0'
#2415
b1 \
b1000 n
1(
#2420
0(
#2425
b1 b
b0 \
1a
b1000 n
1(
#2430
0(
#2435
b1 \
1(
#2440
0(
#2445
b10 \
1(
#2450
0(
#2455
b11 \
1(
#2460
0(
#2465
b1 Z
b0 \
1(
#2470
0(
#2475
b1 \
1(
#2480
0(
#2485
b10 \
1(
#2490
0(
1'
#2495
b11 \
1(
#2500
0(
#2505
b10 Z
b0 \
b1 `
1(
#2510
0(
#2515
b1 \
1(
#2520
0(
#2525
b10 \
1(
#2530
0(
0'
#2535
b11 \
1(
#2540
0(
#2545
b11 Z
b0 \
b10 `
1(
#2550
0(
#2555
b1 \
1(
#2560
0(
#2565
b10 \
1(
#2570
0(
#2575
b11 \
1(
#2580
0(
#2585
b100 Z
b0 \
b100 `
1(
#2590
0(
#2595
b1 \
1(
#2600
0(
#2605
b10 \
1(
#2610
0(
#2615
b11 \
1(
#2620
0(
#2625
b101 Z
b0 \
b1000 `
1(
#2630
0(
#2635
b1 \
1(
#2640
0(
#2645
b10 \
1(
#2650
0(
#2655
b11 \
1(
#2660
0(
#2665
b110 Z
b0 \
b10000 `
1(
#2670
0(
#2675
b1 \
1(
#2680
0(
#2685
b10 \
1(
#2690
0(
#2695
b11 \
1(
#2700
0(
#2705
b111 Z
b0 \
b100000 `
1(
#2710
0(
#2715
b1 \
1(
#2720
0(
#2725
b10 \
1(
#2730
0(
#2735
b11 \
1(
#2740
0(
#2745
b1000 Z
b0 \
b1000000 `
1(
#2750
0(
#2755
b1 \
1(
#2760
0(
#2765
b10 \
1(
#2770
0(
#2775
b11 \
1(
#2780
0(
#2785
b1001 Z
b0 \
b10000000 `
1(
#2790
0(
#2795
b1 \
1(
#2800
0(
#2805
b10 \
1(
#2810
0(
1'
#2815
b11 \
1(
#2820
0(
#2825
b1010 Z
b0 \
b100000001 `
1(
#2830
0(
#2835
b1 \
1(
#2840
0(
#2845
b10 \
1(
#2850
0(
#2855
b11 \
1(
#2860
0(
#2865
b10 #
b10 I
b0 b
b10 f
b101 !
b101 G
b101 c
1$
1d
b100000010 "
b100000010 ^
b1000000 g
b1011 Z
b0 \
b0 `
b1000 n
b1000000 m
1(
#2870
0(
#2875
0$
0d
0a
b0 Z
b1000 n
b11111100 m
1(
#2880
0(
#2885
b1000 n
1(
#2890
0(
0'
#2895
b1 \
b1000 n
1(
#2900
0(
#2905
b1 b
b0 \
1a
b1000 n
1(
#2910
0(
#2915
b1 \
1(
#2920
0(
#2925
b10 \
1(
#2930
0(
1'
#2935
b11 \
1(
#2940
0(
#2945
b1 Z
b0 \
b1 `
1(
#2950
0(
#2955
b1 \
1(
#2960
0(
#2965
b10 \
1(
#2970
0(
#2975
b11 \
1(
#2980
0(
#2985
b10 Z
b0 \
b11 `
1(
#2990
0(
#2995
b1 \
1(
#3000
0(
#3005
b10 \
1(
#3010
0(
0'
#3015
b11 \
1(
#3020
0(
#3025
b11 Z
b0 \
b110 `
1(
#3030
0(
#3035
b1 \
1(
#3040
0(
#3045
b10 \
1(
#3050
0(
#3055
b11 \
1(
#3060
0(
#3065
b100 Z
b0 \
b1100 `
1(
#3070
0(
#3075
b1 \
1(
#3080
0(
#3085
b10 \
1(
#3090
0(
#3095
b11 \
1(
#3100
0(
#3105
b101 Z
b0 \
b11000 `
1(
#3110
0(
#3115
b1 \
1(
#3120
0(
#3125
b10 \
1(
#3130
0(
#3135
b11 \
1(
#3140
0(
#3145
b110 Z
b0 \
b110000 `
1(
#3150
0(
#3155
b1 \
1(
#3160
0(
#3165
b10 \
1(
#3170
0(
#3175
b11 \
1(
#3180
0(
#3185
b111 Z
b0 \
b1100000 `
1(
#3190
0(
#3195
b1 \
1(
#3200
0(
#3205
b10 \
1(
#3210
0(
#3215
b11 \
1(
#3220
0(
#3225
b1000 Z
b0 \
b11000000 `
1(
#3230
0(
#3235
b1 \
1(
#3240
0(
#3245
b10 \
1(
#3250
0(
#3255
b11 \
1(
#3260
0(
#3265
b1001 Z
b0 \
b110000000 `
1(
#3270
0(
#3275
b1 \
1(
#3280
0(
#3285
b10 \
1(
#3290
0(
1'
#3295
b11 \
1(
#3300
0(
#3305
b1010 Z
b0 \
b1100000001 `
1(
#3310
0(
#3315
b1 \
1(
#3320
0(
#3325
b10 \
1(
#3330
0(
#3335
b11 \
1(
#3340
0(
#3345
b11 #
b11 I
b0 b
b11 f
b110 !
b110 G
b110 c
1$
1d
b1000000011 "
b1000000011 ^
b11000000 g
b1011 Z
b0 \
b0 `
b1000 n
b11000000 m
1(
#3350
0(
#3355
0$
0d
0a
b0 Z
b1000 n
b11111100 m
1(
#3360
0(
#3365
b1000 n
1(
#3370
0(
0'
#3375
b1 \
b1000 n
1(
#3380
0(
#3385
b1 b
b0 \
1a
b1000 n
1(
#3390
0(
#3395
b1 \
1(
#3400
0(
#3405
b10 \
1(
#3410
0(
#3415
b11 \
1(
#3420
0(
#3425
b1 Z
b0 \
1(
#3430
0(
#3435
b1 \
1(
#3440
0(
#3445
b10 \
1(
#3450
0(
#3455
b11 \
1(
#3460
0(
#3465
b10 Z
b0 \
1(
#3470
0(
#3475
b1 \
1(
#3480
0(
#3485
b10 \
1(
#3490
0(
1'
#3495
b11 \
1(
#3500
0(
#3505
b11 Z
b0 \
b1 `
1(
#3510
0(
#3515
b1 \
1(
#3520
0(
#3525
b10 \
1(
#3530
0(
0'
#3535
b11 \
1(
#3540
0(
#3545
b100 Z
b0 \
b10 `
1(
#3550
0(
#3555
b1 \
1(
#3560
0(
#3565
b10 \
1(
#3570
0(
#3575
b11 \
1(
#3580
0(
#3585
b101 Z
b0 \
b100 `
1(
#3590
0(
#3595
b1 \
1(
#3600
0(
#3605
b10 \
1(
#3610
0(
#3615
b11 \
1(
#3620
0(
#3625
b110 Z
b0 \
b1000 `
1(
#3630
0(
#3635
b1 \
1(
#3640
0(
#3645
b10 \
1(
#3650
0(
#3655
b11 \
1(
#3660
0(
#3665
b111 Z
b0 \
b10000 `
1(
#3670
0(
#3675
b1 \
1(
#3680
0(
#3685
b10 \
1(
#3690
0(
#3695
b11 \
1(
#3700
0(
#3705
b1000 Z
b0 \
b100000 `
1(
#3710
0(
#3715
b1 \
1(
#3720
0(
#3725
b10 \
1(
#3730
0(
#3735
b11 \
1(
#3740
0(
#3745
b1001 Z
b0 \
b1000000 `
1(
#3750
0(
#3755
b1 \
1(
#3760
0(
#3765
b10 \
1(
#3770
0(
1'
#3775
b11 \
1(
#3780
0(
#3785
b1010 Z
b0 \
b10000001 `
1(
#3790
0(
#3795
b1 \
1(
#3800
0(
#3805
b10 \
1(
#3810
0(
#3815
b11 \
1(
#3820
0(
#3825
b100 #
b100 I
b0 b
b100 f
b111 !
b111 G
b111 c
1$
1d
b1100000100 "
b1100000100 ^
b100000 g
b1011 Z
b0 \
b0 `
b1000 n
b100000 m
1(
#3830
0(
#3835
0$
0d
0a
b0 Z
b1000 n
b11111100 m
1(
#3840
0(
#3845
b1000 n
1(
#3850
0(
0'
#3855
b1 \
b1000 n
1(
#3860
0(
#3865
b1 b
b0 \
1a
b1000 n
1(
#3870
0(
#3875
b1 \
1(
#3880
0(
#3885
b10 \
1(
#3890
0(
1'
#3895
b11 \
1(
#3900
0(
#3905
b1 Z
b0 \
b1 `
1(
#3910
0(
#3915
b1 \
1(
#3920
0(
#3925
b10 \
1(
#3930
0(
0'
#3935
b11 \
1(
#3940
0(
#3945
b10 Z
b0 \
b10 `
1(
#3950
0(
#3955
b1 \
1(
#3960
0(
#3965
b10 \
1(
#3970
0(
1'
#3975
b11 \
1(
#3980
0(
#3985
b11 Z
b0 \
b101 `
1(
#3990
0(
#3995
b1 \
1(
#4000
0(
#4005
b10 \
1(
#4010
0(
0'
#4015
b11 \
1(
#4020
0(
#4025
b100 Z
b0 \
b1010 `
1(
#4030
0(
#4035
b1 \
1(
#4040
0(
#4045
b10 \
1(
#4050
0(
#4055
b11 \
1(
#4060
0(
#4065
b101 Z
b0 \
b10100 `
1(
#4070
0(
#4075
b1 \
1(
#4080
0(
#4085
b10 \
1(
#4090
0(
#4095
b11 \
1(
#4100
0(
#4105
b110 Z
b0 \
b101000 `
1(
#4110
0(
#4115
b1 \
1(
#4120
0(
#4125
b10 \
1(
#4130
0(
#4135
b11 \
1(
#4140
0(
#4145
b111 Z
b0 \
b1010000 `
1(
#4150
0(
#4155
b1 \
1(
#4160
0(
#4165
b10 \
1(
#4170
0(
#4175
b11 \
1(
#4180
0(
#4185
b1000 Z
b0 \
b10100000 `
1(
#4190
0(
#4195
b1 \
1(
#4200
0(
#4205
b10 \
1(
#4210
0(
#4215
b11 \
1(
#4220
0(
#4225
b1001 Z
b0 \
b101000000 `
1(
#4230
0(
#4235
b1 \
1(
#4240
0(
#4245
b10 \
1(
#4250
0(
1'
#4255
b11 \
1(
#4260
0(
#4265
b1010 Z
b0 \
b1010000001 `
1(
#4270
0(
#4275
b1 \
1(
#4280
0(
#4285
b10 \
1(
#4290
0(
#4295
b11 \
1(
#4300
0(
#4305
b101 #
b101 I
b0 b
b101 f
b1000 !
b1000 G
b1000 c
1$
1d
b10000000101 "
b10000000101 ^
b10100000 g
b1011 Z
b0 \
b0 `
b1000 n
b10100000 m
1(
#4310
0(
#4315
0$
0d
0a
b0 Z
b1000 n
b11111100 m
1(
#4320
0(
#4325
b1000 n
1(
#4330
0(
0'
#4335
b1 \
b1000 n
1(
#4340
0(
#4345
b1 b
b0 \
1a
b1000 n
1(
#4350
0(
#4355
b1 \
1(
#4360
0(
#4365
b10 \
1(
#4370
0(
#4375
b11 \
1(
#4380
0(
#4385
b1 Z
b0 \
1(
#4390
0(
#4395
b1 \
1(
#4400
0(
#4405
b10 \
1(
#4410
0(
1'
#4415
b11 \
1(
#4420
0(
#4425
b10 Z
b0 \
b1 `
1(
#4430
0(
#4435
b1 \
1(
#4440
0(
#4445
b10 \
1(
#4450
0(
#4455
b11 \
1(
#4460
0(
#4465
b11 Z
b0 \
b11 `
1(
#4470
0(
#4475
b1 \
1(
#4480
0(
#4485
b10 \
1(
#4490
0(
0'
#4495
b11 \
1(
#4500
0(
#4505
b100 Z
b0 \
b110 `
1(
#4510
0(
#4515
b1 \
1(
#4520
0(
#4525
b10 \
1(
#4530
0(
#4535
b11 \
1(
#4540
0(
#4545
b101 Z
b0 \
b1100 `
1(
#4550
0(
#4555
b1 \
1(
#4560
0(
#4565
b10 \
1(
#4570
0(
#4575
b11 \
1(
#4580
0(
#4585
b110 Z
b0 \
b11000 `
1(
#4590
0(
#4595
b1 \
1(
#4600
0(
#4605
b10 \
1(
#4610
0(
#4615
b11 \
1(
#4620
0(
#4625
b111 Z
b0 \
b110000 `
1(
#4630
0(
#4635
b1 \
1(
#4640
0(
#4645
b10 \
1(
#4650
0(
#4655
b11 \
1(
#4660
0(
#4665
b1000 Z
b0 \
b1100000 `
1(
#4670
0(
#4675
b1 \
1(
#4680
0(
#4685
b10 \
1(
#4690
0(
#4695
b11 \
1(
#4700
0(
#4705
b1001 Z
b0 \
b11000000 `
1(
#4710
0(
#4715
b1 \
1(
#4720
0(
#4725
b10 \
1(
#4730
0(
1'
#4735
b11 \
1(
#4740
0(
#4745
b1010 Z
b0 \
b110000001 `
1(
#4750
0(
#4755
b1 \
1(
#4760
0(
#4765
b10 \
1(
#4770
0(
#4775
b11 \
1(
#4780
0(
#4785
b110 #
b110 I
b0 b
b110 f
b1001 !
b1001 G
b1001 c
1$
1d
b10100000110 "
b10100000110 ^
b1100000 g
b1011 Z
b0 \
b0 `
b1000 n
b1100000 m
1(
#4790
0(
#4795
0$
0d
0a
b0 Z
b1000 n
b11111100 m
1(
#4800
0(
#4805
b1000 n
1(
#4810
0(
0'
#4815
b1 \
b1000 n
1(
#4820
0(
#4825
b1 b
b0 \
1a
b1000 n
1(
#4830
0(
#4835
b1 \
1(
#4840
0(
#4845
b10 \
1(
#4850
0(
1'
#4855
b11 \
1(
#4860
0(
#4865
b1 Z
b0 \
b1 `
1(
#4870
0(
#4875
b1 \
1(
#4880
0(
#4885
b10 \
1(
#4890
0(
#4895
b11 \
1(
#4900
0(
#4905
b10 Z
b0 \
b11 `
1(
#4910
0(
#4915
b1 \
1(
#4920
0(
#4925
b10 \
1(
#4930
0(
#4935
b11 \
1(
#4940
0(
#4945
b11 Z
b0 \
b111 `
1(
#4950
0(
#4955
b1 \
1(
#4960
0(
#4965
b10 \
1(
#4970
0(
0'
#4975
b11 \
1(
#4980
0(
#4985
b100 Z
b0 \
b1110 `
1(
#4990
0(
#4995
b1 \
1(
#5000
0(
#5005
b10 \
1(
#5010
0(
#5015
b11 \
1(
#5020
0(
#5025
b101 Z
b0 \
b11100 `
1(
#5030
0(
#5035
b1 \
1(
#5040
0(
#5045
b10 \
1(
#5050
0(
#5055
b11 \
1(
#5060
0(
