top_module_APB.vcd
$date
	Wed Mar 13 18:02:57 2024
$end
$version
	Icarus Verilog
$end
$timescale
	1s
$end
$scope module top_module_APB_tb $end
$var wire 8 ! sa [7:0] $end
$var wire 1 " Tx_Enable $end
$var wire 1 # Tx $end
$var wire 1 $ PREADY $end
$var wire 8 % PRDATA [7:0] $end
$var reg 8 & PADDR [7:0] $end
$var reg 1 ' PCLK $end
$var reg 1 ( PENABLE $end
$var reg 1 ) PSEL $end
$var reg 16 * PWDATA [15:0] $end
$var reg 1 + PWRITE $end
$var reg 1 , Rx $end
$var reg 1 - rst $end
$var reg 1 . valid $end
$scope module rc1 $end
$var wire 8 / PADDR [7:0] $end
$var wire 1 ' PCLK $end
$var wire 1 ( PENABLE $end
$var wire 1 ) PSEL $end
$var wire 16 0 PWDATA [15:0] $end
$var wire 1 + PWRITE $end
$var wire 1 , Rx $end
$var wire 16 1 byte_in [15:0] $end
$var wire 1 2 byte_out $end
$var wire 16 3 data_in [15:0] $end
$var wire 1 4 rd_enable $end
$var wire 1 - rst_tx $end
$var wire 8 5 sa [7:0] $end
$var wire 1 6 wr_enable $end
$var wire 1 7 seq_detect $end
$var wire 1 8 full $end
$var wire 1 9 empty $end
$var wire 16 : data_out [15:0] $end
$var wire 4 ; count [3:0] $end
$var wire 1 < Tx_complete $end
$var wire 1 " Tx_Enable $end
$var wire 1 # Tx $end
$var wire 8 = PRDATA [7:0] $end
$var reg 1 $ PREADY $end
$var reg 16 > byte_temp_in [15:0] $end
$var reg 16 ? data_temp_in [15:0] $end
$var reg 1 @ enable $end
$var reg 10 A op_rdata [9:0] $end
$var reg 10 B ram_raddr [9:0] $end
$var reg 10 C ram_waddr [9:0] $end
$var reg 1 D rd $end
$var reg 8 E slave_addr [7:0] $end
$var reg 1 F wr $end
$scope module f1 $end
$var wire 1 ' clk $end
$var wire 4 G count [3:0] $end
$var wire 16 H data_in [15:0] $end
$var wire 1 D r_en $end
$var wire 1 - rst_n $end
$var wire 1 F w_en $end
$var wire 1 8 full $end
$var wire 1 9 empty $end
$var reg 4 I count_temp [3:0] $end
$var reg 16 J data_out [15:0] $end
$var reg 4 K r_ptr [3:0] $end
$var reg 4 L w_ptr [3:0] $end
$upscope $end
$scope module tx_detect $end
$var wire 1 , Rx $end
$var wire 16 M byte_in [15:0] $end
$var wire 1 ' clk $end
$var wire 1 - rst_tx $end
$var wire 8 N sa [7:0] $end
$var wire 1 7 sequence_detected $end
$var wire 1 < Tx_complete $end
$var wire 1 " Tx_Enable $end
$var wire 1 # Tx $end
$var reg 1 O reset $end
$scope module detector $end
$var wire 1 , Rx $end
$var wire 1 ' clk $end
$var wire 1 7 detected $end
$var wire 1 - reset $end
$var wire 8 P sa [7:0] $end
$var parameter 3 Q IDLE $end
$var parameter 3 R RX_DETECTED_BIT $end
$var parameter 3 S RX_START_BIT $end
$var parameter 8 T bit_per_address $end
$var parameter 8 U clk_per_bit $end
$var reg 8 V Slave_Addr [7:0] $end
$var reg 8 W bits_rx [7:0] $end
$var reg 6 X clk_counts [5:0] $end
$var reg 1 Y detect $end
$var reg 11 Z seq [10:0] $end
$var reg 8 [ slave_addr [7:0] $end
$var reg 11 \ state [10:0] $end
$var reg 1 ] sync_flag $end
$var reg 3 ^ uart_state [2:0] $end
$scope function shifter $end
$var reg 8 _ Slave_Addr [7:0] $end
$var integer 32 ` i [31:0] $end
$upscope $end
$upscope $end
$scope module t1 $end
$var wire 1 # Tx $end
$var wire 1 " Tx_Enable $end
$var wire 1 ' clk $end
$var wire 16 a data_in [15:0] $end
$var wire 1 - rst $end
$var wire 1 7 seq_detect $end
$var wire 1 b o_clock $end
$var parameter 8 c clk_per_bit $end
$var reg 1 < Tx_complete $end
$var reg 6 d clk_counts [5:0] $end
$var reg 1 e tx_enable $end
$var reg 1 f tx_reg $end
$var integer 32 g i_tx [31:0] $end
$scope module b1 $end
$var wire 1 ' i_clk $end
$var wire 1 b o_clk $end
$var reg 6 h count [5:0] $end
$var reg 1 i o_c $end
$upscope $end
$upscope $end
$upscope $end
$upscope $end
$upscope $end
$enddefinitions $end
$comment Show the parameter values. $end
$dumpall
b100 c
b100 U
b1000 T
b1 S
b10 R
b0 Q
$end
#0
$dumpvars
0i
b0 h
b0 g
1f
0e
bx d
0b
bx a
bx `
bx _
bx ^
0]
b0 \
bx [
bx Z
xY
bx X
bx W
bx V
bx P
0O
bx N
bx M
bx L
bx K
bx J
bx I
b0 H
bx G
xF
bx E
0D
bx C
bx B
b0 A
x@
b0 ?
b0 >
b0 =
0<
bx ;
bx :
x9
x8
x7
06
bx 5
04
b0 3
z2
b0 1
b0 0
b0 /
x.
0-
1,
0+
b0 *
0)
0(
0'
b0 &
b0 %
x$
1#
0"
bx !
$end
#5
b0 X
b0 W
07
0Y
b0 ^
b1 h
b0 d
bx ;
bx G
bx I
b0 :
b0 J
b0 M
b0 a
08
19
b0 K
b0 L
b0 B
b0 C
0F
1'
#10
0'
#15
b0 ;
b0 G
b0 I
1b
1i
b0 h
1'
#20
0'
#25
b1 h
1'
#30
0'
#35
0b
0i
b0 h
1'
#40
0'
#45
b1 h
1'
#50
0'
#55
1b
1i
b0 h
1'
#60
0'
#65
b1 h
1)
1'
b1000 &
b1000 /
#70
b1 *
b1 0
b10100 &
b10100 /
1-
0'
1+
#75
b1 d
0b
0i
b0 h
16
b0xxxxxxxx11 Z
b1000 `
1'
1(
#80
0'
#85
b1 h
b10 d
b1 ;
b1 G
b1 I
b1 !
b1 5
b1 N
b1 P
b1 E
06
b1000 `
09
b1 L
1F
1$
1'
0(
#90
0'
#95
b10 ;
b10 G
b10 I
b11 d
1b
1i
b0 h
b1 V
0$
0F
b10 L
b1000 `
1'
#100
0'
#105
b10000000 [
b1 h
b0 d
b1000 `
b1 _
1'
#110
0'
#115
b1 d
0b
0i
b0 h
b1000000011 Z
b1000 `
1'
#120
0'
0,
#125
b1 X
b1 h
b10 d
b1111111111100000 *
b1111111111100000 0
b1000 `
1'
b0 &
b0 /
#130
0'
#135
b11 d
1b
1i
b0 h
b1 ^
b0 X
1]
16
b1000 `
1'
1(
#140
0'
#145
b1 X
b1 h
b0 d
b11 ;
b11 G
b11 I
b1 C
b1111111111100000 3
b1111111111100000 H
b1111111111100000 ?
b11 L
1F
1$
1'
#150
0'
#155
b100 ;
b100 G
b100 I
b1 d
0b
0i
b0 h
b10 X
0)
06
0$
0F
b100 L
1'
0(
#160
0'
1,
#165
b11 X
b1 h
b10 d
1'
#170
0'
#175
b11 d
1b
1i
b0 h
b1 W
b0 X
b1 \
1'
#180
0'
#185
b1 X
b1 h
b0 d
1'
1.
#190
0'
#195
b1 d
0b
0i
b0 h
b10 X
1'
#200
0'
0,
#205
b11 X
b1 h
b10 d
1'
#210
0'
#215
b11 d
1b
1i
b0 h
b10 W
b0 X
b10 \
1'
#220
0'
#225
b1 X
b1 h
b0 d
1)
b1110000011111111 *
b1110000011111111 0
1'
#230
0'
#235
b1 d
0b
0i
b0 h
b10 X
16
1'
1(
#240
0'
#245
b11 X
b1 h
b10 d
b101 ;
b101 G
b101 I
b10 C
b1110000011111111 3
b1110000011111111 H
b1110000011111111 ?
b101 L
1F
1$
1'
#250
0'
#255
b110 ;
b110 G
b110 I
b11 d
1b
1i
b0 h
b11 W
b0 X
b100 \
0)
06
0$
0F
b110 L
1'
0(
#260
0'
#265
b1 X
b1 h
b0 d
1'
#270
0'
#275
b1 d
0b
0i
b0 h
b10 X
1'
#280
0'
#285
b11 X
b1 h
b10 d
1'
#290
0'
#295
b11 d
1b
1i
b0 h
b100 W
b0 X
b1000 \
1'
#300
0'
#305
b1 X
b1 h
b0 d
1)
b1110000000111111 *
b1110000000111111 0
1'
#310
0'
#315
b1 d
0b
0i
b0 h
b10 X
16
1'
1(
#320
0'
#325
b11 X
b1 h
b10 d
b111 ;
b111 G
b111 I
b11 C
b1110000000111111 3
b1110000000111111 H
b1110000000111111 ?
b111 L
1F
1$
1'
#330
0'
#335
b1000 ;
b1000 G
b1000 I
b11 d
1b
1i
b0 h
b101 W
b0 X
b10000 \
0)
06
0$
0F
b1000 L
1'
0(
#340
0'
#345
b1 X
b1 h
b0 d
1'
#350
0'
#355
b1 d
0b
0i
b0 h
b10 X
1'
#360
0'
#365
b11 X
b1 h
b10 d
1'
#370
0'
#375
b11 d
1b
1i
b0 h
b110 W
b0 X
b100000 \
1)
b1010101110101011 *
b1010101110101011 0
1'
#380
0'
#385
b1 X
b1 h
b0 d
16
1'
1(
#390
0'
#395
b100 C
b1010101110101011 3
b1010101110101011 H
b1010101110101011 ?
b1 d
0b
0i
b0 h
b10 X
1F
1$
1'
#400
0'
#405
b11 X
b1 h
b10 d
0)
06
0$
0F
1'
0(
#410
0'
#415
b11 d
1b
1i
b0 h
b111 W
b0 X
b1000000 \
1'
#420
0'
#425
b1 X
b1 h
b0 d
1'
0.
#430
0'
#435
b1 d
0b
0i
b0 h
b10 X
1'
#440
0'
#445
b11 X
b1 h
b10 d
1'
#450
0'
#455
b11 d
1b
1i
b0 h
b1000 W
b0 X
b10000000 \
1'
#460
0'
#465
b1 X
b1 h
b0 d
1'
#470
0'
#475
b1 d
0b
0i
b0 h
b10 X
1'
#480
0'
1,
#485
b11 X
b1 h
b10 d
1'
#490
0'
#495
b11 d
1b
1i
b0 h
b1001 W
b0 X
b100000001 \
1'
#500
0'
#505
b1 X
b1 h
b0 d
1'
#510
0'
#515
b1 d
0b
0i
b0 h
b10 X
1'
#520
0'
#525
b11 X
b1 h
b10 d
1'
#530
0'
#535
b11 d
1b
1i
b0 h
b1010 W
b0 X
b1000000011 \
1'
#540
0'
#545
b1 X
b1 h
b0 d
1'
#550
0'
#555
b1 d
0b
0i
b0 h
b10 X
1'
#560
0'
#565
b11 X
b1 h
b10 d
1'
#570
0'
#575
b11 d
1b
1i
b0 h
b10 ^
17
1Y
b1011 W
b0 X
b10000000111 \
1'
#580
0'
#585
b1 X
b1 h
b0 d
1"
1e
b1 K
1D
1'
#590
0'
#595
b111 ;
b111 G
b111 I
b10 K
b1 d
0b
0i
b0 h
b10 X
1'
#600
0'
#605
b11 X
b1 h
b10 d
b110 ;
b110 G
b110 I
0D
1'
#610
0'
#615
b11 d
1b
1i
b0 h
b100 X
1'
#620
0'
#625
b101 X
b1 h
b1 g
b0 d
1'
#630
0'
#635
b1 d
0b
0i
b0 h
b110 X
1'
#640
0'
#645
b111 X
b1 h
b10 d
1'
1.
#650
0'
#655
b11 d
1b
1i
b0 h
b1000 X
1'
#660
0'
#665
b1001 X
b1 h
0#
0f
b10 g
b0 d
1'
#670
0'
#675
b1 d
0b
0i
b0 h
b0 ^
1'
#680
0'
#685
0]
b0 W
b0 \
07
0Y
b1 h
b10 d
b1000 `
1'
#690
0'
#695
b11 d
1b
1i
b0 h
b1000 `
1'
#700
0'
#705
b1 h
b11 g
b0 d
b1000 `
1'
#710
0'
#715
b1 d
0b
0i
b0 h
b1000 `
1'
#720
0'
#725
b1 h
b10 d
b1000 `
1'
#730
0'
#735
b11 d
1b
1i
b0 h
b1000 `
1'
#740
0'
#745
b1 h
b100 g
b0 d
b1000 `
1'
#750
0'
#755
b1 d
0b
0i
b0 h
b1000 `
1'
#760
0'
#765
b1 h
b10 d
b1000 `
1'
#770
0'
#775
b11 d
1b
1i
b0 h
b1000 `
1'
#780
0'
#785
b1 h
b101 g
b0 d
b1000 `
1'
#790
0'
#795
b1 d
0b
0i
b0 h
b1000 `
1'
#800
0'
#805
b1 h
b10 d
b1000 `
1'
#810
0'
#815
b11 d
1b
1i
b0 h
b1000 `
1'
#820
0'
#825
b1 h
b110 g
b0 d
b1000 `
1'
#830
0'
#835
b1 d
0b
0i
b0 h
b1000 `
1'
#840
0'
#845
b1 h
b10 d
b1000 `
1'
#850
0'
#855
b11 d
1b
1i
b0 h
b1000 `
1'
#860
0'
#865
b1 h
b111 g
b0 d
b1000 `
1'
#870
0'
#875
b1 d
0b
0i
b0 h
b1000 `
1'
#880
0'
#885
b1 h
b10 d
b1000 `
1'
#890
0'
#895
b11 d
1b
1i
b0 h
b1000 `
1'
0.
#900
0'
#905
b1 h
b1000 g
b0 d
b1000 `
1'
#910
0'
#915
b1 d
0b
0i
b0 h
b1000 `
1'
#920
0'
#925
b1 h
b10 d
b1000 `
1'
#930
0'
#935
b11 d
1b
1i
b0 h
b1000 `
1'
#940
0'
#945
b1 h
b1001 g
b0 d
b1000 `
1'
#950
0'
#955
b1 d
0b
0i
b0 h
b1000 `
1'
#960
0'
#965
b1 h
b10 d
b1000 `
1'
#970
0'
#975
b11 d
1b
1i
b0 h
b1000 `
1'
#980
0'
#985
b1 h
b1010 g
b0 d
b1000 `
1'
#990
0'
#995
b1 d
0b
0i
b0 h
b1000 `
1'
#1000
0'
#1005
b1 h
b10 d
b1000 `
1'
#1010
0'
#1015
b11 d
1b
1i
b0 h
b1000 `
1'
#1020
0'
#1025
b1 h
b1011 g
b0 d
b1000 `
1'
#1030
0'
#1035
b1 d
0b
0i
b0 h
b1000 `
1'
#1040
0'
#1045
b1 h
b10 d
b1000 `
1'
#1050
0'
#1055
b11 d
1b
1i
b0 h
b1000 `
1'
#1060
0'
#1065
b1 h
1#
1f
b1100 g
b0 d
b1000 `
1'
#1070
0'
#1075
b1 d
0b
0i
b0 h
b1000 `
1'
#1080
0'
#1085
b1 h
b10 d
b1000 `
1'
#1090
0'
#1095
b11 d
1b
1i
b0 h
b1000 `
1'
#1100
0'
#1105
b1 h
0#
0f
b1101 g
b0 d
b1000 `
1'
#1110
0'
#1115
b1 d
0b
0i
b0 h
b1000 `
1'
#1120
0'
#1125
b1 h
b10 d
b1000 `
1'
#1130
0'
#1135
b11 d
1b
1i
b0 h
b1000 `
1'
#1140
0'
#1145
b1 h
b1110 g
b0 d
b1000 `
1'
#1150
0'
#1155
b1 d
0b
0i
b0 h
b1000 `
1'
#1160
0'
#1165
b1 h
b10 d
b1000 `
1'
#1170
0'
#1175
b11 d
1b
1i
b0 h
b1000 `
1'
#1180
0'
#1185
b1 h
b1111 g
b0 d
b1000 `
1'
#1190
0'
#1195
b1 d
0b
0i
b0 h
b1000 `
1'
#1200
0'
#1205
b1 h
b10 d
b1000 `
1'
#1210
0'
#1215
b11 d
1b
1i
b0 h
b1000 `
1'
#1220
0'
#1225
b1 h
b10000 g
b0 d
b1000 `
1'
#1230
0'
#1235
b1 d
0b
0i
b0 h
b1000 `
1'
#1240
0'
#1245
b1 h
b10 d
b1000 `
1'
#1250
0'
#1255
b11 d
1b
1i
b0 h
b1000 `
1'
#1260
0'
#1265
b1 h
b10001 g
b0 d
b1000 `
1'
#1270
0'
#1275
b1 d
0b
0i
b0 h
b1000 `
1'
#1280
0'
#1285
b1 h
b10 d
b1000 `
1'
#1290
0'
#1295
b11 d
1b
1i
b0 h
b1000 `
1'
#1300
0'
#1305
b1 h
b10010 g
b0 d
b1000 `
1'
#1310
0'
#1315
b1 d
0b
0i
b0 h
b1000 `
1'
#1320
0'
#1325
b1 h
b10 d
b1000 `
1'
#1330
0'
#1335
b11 d
1b
1i
b0 h
b1000 `
1'
#1340
0'
#1345
b1 h
b10011 g
b0 d
b1000 `
1'
#1350
0'
#1355
b1 d
0b
0i
b0 h
b1000 `
1'
#1360
0'
#1365
b1 h
b10 d
b1000 `
1'
#1370
0'
#1375
b11 d
1b
1i
b0 h
b1000 `
1'
#1380
0'
#1385
b1 h
b10100 g
b0 d
b1000 `
1'
#1390
0'
#1395
b1 d
0b
0i
b0 h
b1000 `
1'
#1400
0'
#1405
b1 h
b10 d
b1000 `
1'
#1410
0'
#1415
b11 d
1b
1i
b0 h
b1000 `
1'
#1420
0'
#1425
b1 h
b10101 g
b0 d
b1000 `
1'
#1430
0'
#1435
b1 d
0b
0i
b0 h
b1000 `
1'
#1440
0'
#1445
b1 h
b10 d
b1000 `
1'
#1450
0'
#1455
b11 d
1b
1i
b0 h
b1000 `
1'
#1460
0'
#1465
b1 h
b10110 g
b0 d
b1000 `
1'
#1470
0'
#1475
b1 d
0b
0i
b0 h
b1000 `
1'
#1480
0'
#1485
b1 h
b10 d
b1000 `
1'
#1490
0'
#1495
b11 d
1b
1i
b0 h
b1000 `
1'
#1500
0'
#1505
b1 h
1#
1f
b10111 g
b0 d
b1000 `
1'
#1510
0'
#1515
b1 d
0b
0i
b0 h
b1000 `
1'
#1520
0'
#1525
b1 h
b10 d
b1000 `
1'
#1530
0'
#1535
b11 d
1b
1i
b0 h
b1000 `
1'
#1540
0'
#1545
b1 h
0"
0e
1<
b0 g
b0 d
b1000 `
1'
#1550
0'
#1555
b1 B
b1 d
0b
0i
b0 h
b1000 `
1'
#1560
0'
#1565
b1 h
b10 d
b10 B
b1000 `
1'
#1570
0'
#1575
b11 B
b11 d
1b
1i
b0 h
b1000 `
1'
#1580
0'
#1585
b1 h
b0 d
b100 B
b1000 `
1'
#1590
0'
#1595
b101 B
b1 d
0b
0i
b0 h
b1000 `
1'
#1600
0'
0,
#1605
b1 ^
b0 X
1]
b1 h
b10 d
b110 B
b1000 `
1'
#1610
0'
#1615
b111 B
b11 d
1b
1i
b0 h
b1 X
1'
#1620
0'
#1625
b10 X
b1 h
b0 d
b1000 B
1'
#1630
0'
#1635
b1001 B
b1 d
0b
0i
b0 h
b11 X
1'
#1640
0'
1,
#1645
b1 W
b0 X
b1 \
b1 h
b10 d
b1010 B
1'
#1650
0'
#1655
b1011 B
b11 d
1b
1i
b0 h
b1 X
1'
#1660
0'
#1665
b10 X
b1 h
b0 d
b1100 B
1'
#1670
0'
#1675
b1101 B
b1 d
0b
0i
b0 h
b11 X
1'
#1680
0'
0,
#1685
b10 W
b0 X
b10 \
b1 h
b10 d
b1110 B
1'
#1690
0'
#1695
b1111 B
b11 d
1b
1i
b0 h
b1 X
1'
#1700
0'
#1705
b10 X
b1 h
b0 d
b10000 B
1'
#1710
0'
#1715
b10001 B
b1 d
0b
0i
b0 h
b11 X
1'
#1720
0'
#1725
b11 W
b0 X
b100 \
b1 h
b10 d
b10010 B
1'
#1730
0'
#1735
b10011 B
b11 d
1b
1i
b0 h
b1 X
1'
#1740
0'
#1745
b10 X
b1 h
b0 d
b10100 B
1'
#1750
0'
#1755
b10101 B
b1 d
0b
0i
b0 h
b11 X
1'
#1760
0'
#1765
b100 W
b0 X
b1000 \
b1 h
b10 d
b10110 B
1'
#1770
0'
#1775
b10111 B
b11 d
1b
1i
b0 h
b1 X
1'
#1780
0'
#1785
b10 X
b1 h
b0 d
b11000 B
1'
#1790
0'
#1795
b11001 B
b1 d
0b
0i
b0 h
b11 X
1'
#1800
0'
#1805
b101 W
b0 X
b10000 \
b1 h
b10 d
b11010 B
1'
#1810
0'
#1815
b11011 B
b11 d
1b
1i
b0 h
b1 X
1'
#1820
0'
#1825
b10 X
b1 h
b0 d
b11100 B
1'
#1830
0'
#1835
b11101 B
b1 d
0b
0i
b0 h
b11 X
1'
#1840
0'
#1845
b110 W
b0 X
b100000 \
b1 h
b10 d
b11110 B
1'
#1850
0'
#1855
b11111 B
b11 d
1b
1i
b0 h
b1 X
1'
#1860
0'
#1865
b10 X
b1 h
b0 d
b100000 B
1'
#1870
0'
#1875
b100001 B
b1 d
0b
0i
b0 h
b11 X
1'
#1880
0'
#1885
b111 W
b0 X
b1000000 \
b1 h
b10 d
b100010 B
1'
#1890
0'
#1895
b100011 B
b11 d
1b
1i
b0 h
b1 X
1'
#1900
0'
#1905
b10 X
b1 h
b0 d
b100100 B
1'
#1910
0'
#1915
b100101 B
b1 d
0b
0i
b0 h
b11 X
1'
#1920
0'
#1925
b1000 W
b0 X
b10000000 \
b1 h
b10 d
b100110 B
1'
#1930
0'
#1935
b100111 B
b11 d
1b
1i
b0 h
b1 X
1'
#1940
0'
#1945
b10 X
b1 h
b0 d
b101000 B
1'
#1950
0'
#1955
b101001 B
b1 d
0b
0i
b0 h
b11 X
1'
#1960
0'
1,
#1965
b1001 W
b0 X
b100000001 \
b1 h
b10 d
b101010 B
1'
#1970
0'
#1975
b101011 B
b11 d
1b
1i
b0 h
b1 X
1'
#1980
0'
#1985
b10 X
b1 h
b0 d
b101100 B
1'
#1990
0'
#1995
b101101 B
b1 d
0b
0i
b0 h
b11 X
1'
#2000
0'
#2005
b1010 W
b0 X
b1000000011 \
b1 h
b10 d
b101110 B
1'
#2010
0'
#2015
b101111 B
b11 d
1b
1i
b0 h
b1 X
1'
#2020
0'
#2025
b10 X
b1 h
b0 d
b110000 B
1'
#2030
0'
#2035
b110001 B
b1 d
0b
0i
b0 h
b11 X
1'
#2040
0'
#2045
b10 ^
17
1Y
b1011 W
b0 X
b10000000111 \
b1 h
b10 d
b110010 B
1'
#2050
0'
#2055
b110011 B
b11 K
b11 d
1"
1e
1b
1i
b0 h
b1 X
1D
1'
#2060
0'
#2065
b10 X
b1 h
b1 g
b0 d
b101 ;
b101 G
b101 I
b100 K
b1111111111100000 :
b1111111111100000 J
b1111111111100000 M
b1111111111100000 a
b110100 B
1'
#2070
0'
#2075
b110101 B
b100 ;
b100 G
b100 I
b1 d
0b
0i
b0 h
b11 X
0D
1'
#2080
0'
#2085
b100 X
b1 h
b10 d
b110110 B
1'
#2090
0'
#2095
b110111 B
b11 d
1b
1i
b0 h
b101 X
1'
#2100
0'
#2105
b110 X
b1 h
0#
0f
0<
b10 g
b0 d
b111000 B
1'
#2110
0'
#2115
b1 d
0b
0i
b0 h
b111 X
1'
#2120
0'
#2125
b1000 X
b1 h
b10 d
1'
#2130
0'
#2135
b11 d
1b
1i
b0 h
b1001 X
1'
#2140
0'
#2145
b0 ^
b1 h
b11 g
b0 d
1'
#2150
0'
#2155
b1 d
0b
0i
b0 h
0]
b0 W
b0 \
07
0Y
b1000 `
1'
#2160
0'
#2165
b1 h
b10 d
b1000 `
1'
#2170
0'
#2175
b11 d
1b
1i
b0 h
b1000 `
1'
#2180
0'
#2185
b1 h
b100 g
b0 d
b1000 `
1'
#2190
0'
#2195
b1 d
0b
0i
b0 h
b1000 `
1'
#2200
0'
#2205
b1 h
b10 d
b1000 `
1'
#2210
0'
#2215
b11 d
1b
1i
b0 h
b1000 `
1'
#2220
0'
#2225
b1 h
b101 g
b0 d
b1000 `
1'
#2230
0'
#2235
b1 d
0b
0i
b0 h
b1000 `
1'
#2240
0'
#2245
b1 h
b10 d
b1000 `
1'
#2250
0'
#2255
b11 d
1b
1i
b0 h
b1000 `
1'
#2260
0'
#2265
b1 h
b110 g
b0 d
b1000 `
1'
#2270
0'
#2275
b1 d
0b
0i
b0 h
b1000 `
1'
#2280
0'
#2285
b1 h
b10 d
b1000 `
1'
#2290
0'
#2295
b11 d
1b
1i
b0 h
b1000 `
1'
#2300
0'
#2305
b1 h
b111 g
b0 d
b1000 `
1'
#2310
0'
#2315
b1 d
0b
0i
b0 h
b1000 `
1'
#2320
0'
#2325
b1 h
b10 d
b1000 `
1'
#2330
0'
#2335
b11 d
1b
1i
b0 h
b1000 `
1'
#2340
0'
#2345
b1 h
1#
1f
b1000 g
b0 d
b1000 `
1'
#2350
0'
#2355
b1 d
0b
0i
b0 h
b1000 `
1'
#2360
0'
#2365
b1 h
b10 d
b1000 `
1'
#2370
0'
#2375
b11 d
1b
1i
b0 h
b1000 `
1'
#2380
0'
#2385
b1 h
b1001 g
b0 d
b1000 `
1'
#2390
0'
#2395
b1 d
0b
0i
b0 h
b1000 `
1'
#2400
0'
#2405
b1 h
b10 d
b1000 `
1'
#2410
0'
#2415
b11 d
1b
1i
b0 h
b1000 `
1'
#2420
0'
#2425
b1 h
b1010 g
b0 d
b1000 `
1'
#2430
0'
#2435
b1 d
0b
0i
b0 h
b1000 `
1'
#2440
0'
#2445
b1 h
b10 d
b1000 `
1'
#2450
0'
#2455
b11 d
1b
1i
b0 h
b1000 `
1'
#2460
0'
#2465
b1 h
0#
0f
b1011 g
b0 d
b1000 `
1'
#2470
0'
#2475
b1 d
0b
0i
b0 h
b1000 `
1'
#2480
0'
#2485
b1 h
b10 d
b1000 `
1'
#2490
0'
#2495
b11 d
1b
1i
b0 h
b1000 `
1'
#2500
0'
#2505
b1 h
1#
1f
b1100 g
b0 d
b1000 `
1'
#2510
0'
#2515
b1 d
0b
0i
b0 h
b1000 `
1'
#2520
0'
#2525
b1 h
b10 d
b1000 `
1'
#2530
0'
#2535
b11 d
1b
1i
b0 h
b1000 `
1'
#2540
0'
#2545
b1 h
0#
0f
b1101 g
b0 d
b1000 `
1'
#2550
0'
#2555
b1 d
0b
0i
b0 h
b1000 `
1'
#2560
0'
#2565
b1 h
b10 d
b1000 `
1'
#2570
0'
#2575
b11 d
1b
1i
b0 h
b1000 `
1'
#2580
0'
#2585
b1 h
1#
1f
b1110 g
b0 d
b1000 `
1'
#2590
0'
#2595
b1 d
0b
0i
b0 h
b1000 `
1'
#2600
0'
#2605
b1 h
b10 d
b1000 `
1'
#2610
0'
#2615
b11 d
1b
1i
b0 h
b1000 `
1'
#2620
0'
#2625
b1 h
b1111 g
b0 d
b1000 `
1'
#2630
0'
#2635
b1 d
0b
0i
b0 h
b1000 `
1'
#2640
0'
#2645
b1 h
b10 d
b1000 `
1'
#2650
0'
#2655
b11 d
1b
1i
b0 h
b1000 `
1'
#2660
0'
#2665
b1 h
b10000 g
b0 d
b1000 `
1'
#2670
0'
#2675
b1 d
0b
0i
b0 h
b1000 `
1'
#2680
0'
#2685
b1 h
b10 d
b1000 `
1'
#2690
0'
#2695
b11 d
1b
1i
b0 h
b1000 `
1'
#2700
0'
#2705
b1 h
b10001 g
b0 d
b1000 `
1'
#2710
0'
#2715
b1 d
0b
0i
b0 h
b1000 `
1'
#2720
0'
#2725
b1 h
b10 d
b1000 `
1'
#2730
0'
#2735
b11 d
1b
1i
b0 h
b1000 `
1'
#2740
0'
#2745
b1 h
b10010 g
b0 d
b1000 `
1'
#2750
0'
#2755
b1 d
0b
0i
b0 h
b1000 `
1'
#2760
0'
#2765
b1 h
b10 d
b1000 `
1'
#2770
0'
#2775
b11 d
1b
1i
b0 h
b1000 `
1'
#2780
0'
#2785
b1 h
b10011 g
b0 d
b1000 `
1'
#2790
0'
#2795
b1 d
0b
0i
b0 h
b1000 `
1'
#2800
0'
#2805
b1 h
b10 d
b1000 `
1'
#2810
0'
#2815
b11 d
1b
1i
b0 h
b1000 `
1'
#2820
0'
#2825
b1 h
b10100 g
b0 d
b1000 `
1'
#2830
0'
#2835
b1 d
0b
0i
b0 h
b1000 `
1'
#2840
0'
#2845
b1 h
b10 d
b1000 `
1'
#2850
0'
#2855
b11 d
1b
1i
b0 h
b1000 `
1'
#2860
0'
#2865
b1 h
b10101 g
b0 d
b1000 `
1'
#2870
0'
#2875
b1 d
0b
0i
b0 h
b1000 `
1'
#2880
0'
#2885
b1 h
b10 d
b1000 `
1'
#2890
0'
#2895
b11 d
1b
1i
b0 h
b1000 `
1'
